…
library(xml2)
library(purrr)

xml_find_all(query_result, ".//response/data-table/r") %>% 
  map_df(function(row) {
    xml_find_all(row, ".//c") %>% 
      xml_attrs() %>% 
      as.list() %>% 
      setNames(sprintf("V%d", 1:length(.))) %>% 
      as.data.frame(stringsAsFactors=FALSE)
  }) %>% 
  tibble::as.tibble()
```

    ## # A tibble: 68 x 5
    ##               V1                    V2     V3            V4    V5
    ##            <chr>                 <chr>  <chr>         <chr> <chr>
    ##  1 Unintentional            Cut/Pierce     98 1,321,112,279   0.0
    ##  2 Unintentional              Drowning 16,761 1,321,112,279   1.3
    ##  3 Unintentional                  Fall  2,314 1,321,112,279   0.2
    ##  4 Unintentional            Fire/Flame  7,548 1,321,112,279   0.6
    ##  5 Unintentional  Hot object/Substance    100 1,321,112,279   0.0
    ##  6 Unintentional               Firearm  2,123 1,321,112,279   0.2
    ##  7 Unintentional             Machinery    506 1,321,112,279   0.0
    ##  8 Unintentional Motor Vehicle Traffic 77,887 1,321,112,279   5.9
    ##  9 Unintentional   Other Pedal cyclist    483 1,321,112,279   0.0
    ## 10 Unintentional      Other Pedestrian  3,373 1,321,112,279   0.3
    ## # ... with 58 more rows
